Semestrul 3/C/AC/Teste/Rezolvari/Doar_enunt/T1P2-Vi14/transcript
do run_ex1.txt
# ex1.v
# e3_mult_tb
# Model Technology ModelSim - Intel FPGA Edition vlog 10.5b Compiler 2016.10 Oct  5 2016
# Start time: 16:50:13 on Dec 28,2023
# vlog -reportprogress 300 ex1.v 
# -- Compiling module e3_mult
# ** Error: ex1.v(4): (vlog-2110) Illegal reference to net "out".
# ** Error: ex1.v(5): (vlog-2110) Illegal reference to net "out".
# -- Compiling module e3_mult_tb
# End time: 16:50:13 on Dec 28,2023, Elapsed time: 0:00:00
# Errors: 2, Warnings: 0
do run_ex1.txt
# ex1.v
# e3_mult_tb
# Model Technology ModelSim - Intel FPGA Edition vlog 10.5b Compiler 2016.10 Oct  5 2016
# Start time: 16:50:26 on Dec 28,2023
# vlog -reportprogress 300 ex1.v 
# -- Compiling module e3_mult
# -- Compiling module e3_mult_tb
# 
# Top level modules:
# 	e3_mult_tb
# End time: 16:50:26 on Dec 28,2023, Elapsed time: 0:00:00
# Errors: 0, Warnings: 0
# vsim -voptargs="+acc" e3_mult_tb 
# Start time: 16:50:26 on Dec 28,2023
# Loading work.e3_mult_tb
# Loading work.e3_mult
# in_0	in_1		expected_out	actual_out	Passed(1)/Failed(0)
# 0011	0011		000000110011	0000110011	                 1
# 0011	0100		000000110011	0000110011	                 1
# 0011	0101		000000110011	0000110011	                 1
# 0011	0110		000000110011	0000110011	                 1
# 0011	0111		000000110011	0000110011	                 1
# 0011	1000		000000110011	0000110011	                 1
# 0011	1001		000000110011	0000110011	                 1
# 0011	1010		000000110011	0000110011	                 1
# 0011	1011		000000110011	0000110011	                 1
# 0011	1100		000000110011	0000110011	                 1
# 0100	0011		000000110011	0000110011	                 1
# 0100	0100		000000110100	0000110100	                 1
# 0100	0101		000000110101	0000110101	                 1
# 0100	0110		000000110110	0000110110	                 1
# 0100	0111		000000110111	0000110111	                 1
# 0100	1000		000000111000	0000111000	                 1
# 0100	1001		000000111001	0000111001	                 1
# 0100	1010		000000111010	0000111010	                 1
# 0100	1011		000000111011	0000111011	                 1
# 0100	1100		000000111100	0000111100	                 1
# 0101	0011		000000110011	0000110011	                 1
# 0101	0100		000000110101	0000110101	                 1
# 0101	0101		000000110111	0000110111	                 1
# 0101	0110		000000111001	0000111001	                 1
# 0101	0111		000000111011	0000111011	                 1
# 0101	1000		000001000011	0001000011	                 1
# 0101	1001		000001000101	0001000101	                 1
# 0101	1010		000001000111	0001000111	                 1
# 0101	1011		000001001001	0001001001	                 1
# 0101	1100		000001001011	0001001011	                 1
# 0110	0011		000000110011	0000110011	                 1
# 0110	0100		000000110110	0000110110	                 1
# 0110	0101		000000111001	0000111001	                 1
# 0110	0110		000000111100	0000111100	                 1
# 0110	0111		000001000101	0001000101	                 1
# 0110	1000		000001001000	0001001000	                 1
# 0110	1001		000001001011	0001001011	                 1
# 0110	1010		000001010100	0001010100	                 1
# 0110	1011		000001010111	0001010111	                 1
# 0110	1100		000001011010	0001011010	                 1
# 0111	0011		000000110011	0000110011	                 1
# 0111	0100		000000110111	0000110111	                 1
# 0111	0101		000000111011	0000111011	                 1
# 0111	0110		000001000101	0001000101	                 1
# 0111	0111		000001001001	0001001001	                 1
# 0111	1000		000001010011	0001010011	                 1
# 0111	1001		000001010111	0001010111	                 1
# 0111	1010		000001011011	0001011011	                 1
# 0111	1011		000001100101	0001100101	                 1
# 0111	1100		000001101001	0001101001	                 1
# 1000	0011		000000110011	0000110011	                 1
# 1000	0100		000000111000	0000111000	                 1
# 1000	0101		000001000011	0001000011	                 1
# 1000	0110		000001001000	0001001000	                 1
# 1000	0111		000001010011	0001010011	                 1
# 1000	1000		000001011000	0001011000	                 1
# 1000	1001		000001100011	0001100011	                 1
# 1000	1010		000001101000	0001101000	                 1
# 1000	1011		000001110011	0001110011	                 1
# 1000	1100		000001111000	0001111000	                 1
# 1001	0011		000000110011	0000110011	                 1
# 1001	0100		000000111001	0000111001	                 1
# 1001	0101		000001000101	0001000101	                 1
# 1001	0110		000001001011	0001001011	                 1
# 1001	0111		000001010111	0001010111	                 1
# 1001	1000		000001100011	0001100011	                 1
# 1001	1001		000001101001	0001101001	                 1
# 1001	1010		000001110101	0001110101	                 1
# 1001	1011		000001111011	0001111011	                 1
# 1001	1100		000010000111	0010000111	                 1
# 1010	0011		000000110011	0000110011	                 1
# 1010	0100		000000111010	0000111010	                 1
# 1010	0101		000001000111	0001000111	                 1
# 1010	0110		000001010100	0001010100	                 1
# 1010	0111		000001011011	0001011011	                 1
# 1010	1000		000001101000	0001101000	                 1
# 1010	1001		000001110101	0001110101	                 1
# 1010	1010		000001111100	0001111100	                 1
# 1010	1011		000010001001	0010001001	                 1
# 1010	1100		000010010110	0010010110	                 1
# 1011	0011		000000110011	0000110011	                 1
# 1011	0100		000000111011	0000111011	                 1
# 1011	0101		000001001001	0001001001	                 1
# 1011	0110		000001010111	0001010111	                 1
# 1011	0111		000001100101	0001100101	                 1
# 1011	1000		000001110011	0001110011	                 1
# 1011	1001		000001111011	0001111011	                 1
# 1011	1010		000010001001	0010001001	                 1
# 1011	1011		000010010111	0010010111	                 1
# 1011	1100		000010100101	0010100101	                 1
# 1100	0011		000000110011	0000110011	                 1
# 1100	0100		000000111100	0000111100	                 1
# 1100	0101		000001001011	0001001011	                 1
# 1100	0110		000001011010	0001011010	                 1
# 1100	0111		000001101001	0001101001	                 1
# 1100	1000		000001111000	0001111000	                 1
# 1100	1001		000010000111	0010000111	                 1
# 1100	1010		000010010110	0010010110	                 1
# 1100	1011		000010100101	0010100101	                 1
# 1100	1100		000010110100	0010110100	                 1
# Passed / Total: 100 / 100
# Nota: 2.  0
# End time: 16:50:33 on Dec 28,2023, Elapsed time: 0:00:07
# Errors: 0, Warnings: 0
do run_ex2.txt
# ex2.v
# priority_enc_tb
# Model Technology ModelSim - Intel FPGA Edition vlog 10.5b Compiler 2016.10 Oct  5 2016
# Start time: 16:51:36 on Dec 28,2023
# vlog -reportprogress 300 ex2.v 
# -- Compiling module prioirty_enc
# ** Error: ex2.v(6): (vlog-2110) Illegal reference to net "prio_out".
# ** Error: ex2.v(8): (vlog-2110) Illegal reference to net "prio_out".
# -- Compiling module priority_enc_tb
# End time: 16:51:36 on Dec 28,2023, Elapsed time: 0:00:00
# Errors: 2, Warnings: 0
do run_ex2.txt
# ex2.v
# priority_enc_tb
# Model Technology ModelSim - Intel FPGA Edition vlog 10.5b Compiler 2016.10 Oct  5 2016
# Start time: 16:51:46 on Dec 28,2023
# vlog -reportprogress 300 ex2.v 
# -- Compiling module prioirty_enc
# -- Compiling module priority_enc_tb
# 
# Top level modules:
# 	priority_enc_tb
# End time: 16:51:46 on Dec 28,2023, Elapsed time: 0:00:00
# Errors: 0, Warnings: 0
# vsim -voptargs="+acc" priority_enc_tb 
# Start time: 16:51:47 on Dec 28,2023
# Loading work.priority_enc_tb
# Loading work.prioirty_enc
# prio_in		expected_prio_out	actual_prio_out	Passed(1)/Failed(0)
# 00000001		0000000000000000	000000000000000	                 1
# 00000010		0000000000000001	000000000000001	                 1
# 00000011		0000000000000001	000000000000001	                 1
# 00000100		0000000000000010	000000000000010	                 1
# 00000101		0000000000000010	000000000000010	                 1
# 00000110		0000000000000010	000000000000010	                 1
# 00000111		0000000000000010	000000000000010	                 1
# 00001000		0000000000000011	000000000000011	                 1
# 00001001		0000000000000011	000000000000011	                 1
# 00001010		0000000000000011	000000000000011	                 1
# 00001011		0000000000000011	000000000000011	                 1
# 00001100		0000000000000011	000000000000011	                 1
# 00001101		0000000000000011	000000000000011	                 1
# 00001110		0000000000000011	000000000000011	                 1
# 00001111		0000000000000011	000000000000011	                 1
# 00010000		0000000000000100	000000000000100	                 1
# 00010001		0000000000000100	000000000000100	                 1
# 00010010		0000000000000100	000000000000100	                 1
# 00010011		0000000000000100	000000000000100	                 1
# 00010100		0000000000000100	000000000000100	                 1
# 00010101		0000000000000100	000000000000100	                 1
# 00010110		0000000000000100	000000000000100	                 1
# 00010111		0000000000000100	000000000000100	                 1
# 00011000		0000000000000100	000000000000100	                 1
# 00011001		0000000000000100	000000000000100	                 1
# 00011010		0000000000000100	000000000000100	                 1
# 00011011		0000000000000100	000000000000100	                 1
# 00011100		0000000000000100	000000000000100	                 1
# 00011101		0000000000000100	000000000000100	                 1
# 00011110		0000000000000100	000000000000100	                 1
# 00011111		0000000000000100	000000000000100	                 1
# 00100000		0000000000000101	000000000000101	                 1
# 00100001		0000000000000101	000000000000101	                 1
# 00100010		0000000000000101	000000000000101	                 1
# 00100011		0000000000000101	000000000000101	                 1
# 00100100		0000000000000101	000000000000101	                 1
# 00100101		0000000000000101	000000000000101	                 1
# 00100110		0000000000000101	000000000000101	                 1
# 00100111		0000000000000101	000000000000101	                 1
# 00101000		0000000000000101	000000000000101	                 1
# 00101001		0000000000000101	000000000000101	                 1
# 00101010		0000000000000101	000000000000101	                 1
# 00101011		0000000000000101	000000000000101	                 1
# 00101100		0000000000000101	000000000000101	                 1
# 00101101		0000000000000101	000000000000101	                 1
# 00101110		0000000000000101	000000000000101	                 1
# 00101111		0000000000000101	000000000000101	                 1
# 00110000		0000000000000101	000000000000101	                 1
# 00110001		0000000000000101	000000000000101	                 1
# 00110010		0000000000000101	000000000000101	                 1
# 00110011		0000000000000101	000000000000101	                 1
# 00110100		0000000000000101	000000000000101	                 1
# 00110101		0000000000000101	000000000000101	                 1
# 00110110		0000000000000101	000000000000101	                 1
# 00110111		0000000000000101	000000000000101	                 1
# 00111000		0000000000000101	000000000000101	                 1
# 00111001		0000000000000101	000000000000101	                 1
# 00111010		0000000000000101	000000000000101	                 1
# 00111011		0000000000000101	000000000000101	                 1
# 00111100		0000000000000101	000000000000101	                 1
# 00111101		0000000000000101	000000000000101	                 1
# 00111110		0000000000000101	000000000000101	                 1
# 00111111		0000000000000101	000000000000101	                 1
# 01000000		0000000000000110	000000000000110	                 1
# 01000001		0000000000000110	000000000000110	                 1
# 01000010		0000000000000110	000000000000110	                 1
# 01000011		0000000000000110	000000000000110	                 1
# 01000100		0000000000000110	000000000000110	                 1
# 01000101		0000000000000110	000000000000110	                 1
# 01000110		0000000000000110	000000000000110	                 1
# 01000111		0000000000000110	000000000000110	                 1
# 01001000		0000000000000110	000000000000110	                 1
# 01001001		0000000000000110	000000000000110	                 1
# 01001010		0000000000000110	000000000000110	                 1
# 01001011		0000000000000110	000000000000110	                 1
# 01001100		0000000000000110	000000000000110	                 1
# 01001101		0000000000000110	000000000000110	                 1
# 01001110		0000000000000110	000000000000110	                 1
# 01001111		0000000000000110	000000000000110	                 1
# 01010000		0000000000000110	000000000000110	                 1
# 01010001		0000000000000110	000000000000110	                 1
# 01010010		0000000000000110	000000000000110	                 1
# 01010011		0000000000000110	000000000000110	                 1
# 01010100		0000000000000110	000000000000110	                 1
# 01010101		0000000000000110	000000000000110	                 1
# 01010110		0000000000000110	000000000000110	                 1
# 01010111		0000000000000110	000000000000110	                 1
# 01011000		0000000000000110	000000000000110	                 1
# 01011001		0000000000000110	000000000000110	                 1
# 01011010		0000000000000110	000000000000110	                 1
# 01011011		0000000000000110	000000000000110	                 1
# 01011100		0000000000000110	000000000000110	                 1
# 01011101		0000000000000110	000000000000110	                 1
# 01011110		0000000000000110	000000000000110	                 1
# 01011111		0000000000000110	000000000000110	                 1
# 01100000		0000000000000110	000000000000110	                 1
# 01100001		0000000000000110	000000000000110	                 1
# 01100010		0000000000000110	000000000000110	                 1
# 01100011		0000000000000110	000000000000110	                 1
# 01100100		0000000000000110	000000000000110	                 1
# 01100101		0000000000000110	000000000000110	                 1
# 01100110		0000000000000110	000000000000110	                 1
# 01100111		0000000000000110	000000000000110	                 1
# 01101000		0000000000000110	000000000000110	                 1
# 01101001		0000000000000110	000000000000110	                 1
# 01101010		0000000000000110	000000000000110	                 1
# 01101011		0000000000000110	000000000000110	                 1
# 01101100		0000000000000110	000000000000110	                 1
# 01101101		0000000000000110	000000000000110	                 1
# 01101110		0000000000000110	000000000000110	                 1
# 01101111		0000000000000110	000000000000110	                 1
# 01110000		0000000000000110	000000000000110	                 1
# 01110001		0000000000000110	000000000000110	                 1
# 01110010		0000000000000110	000000000000110	                 1
# 01110011		0000000000000110	000000000000110	                 1
# 01110100		0000000000000110	000000000000110	                 1
# 01110101		0000000000000110	000000000000110	                 1
# 01110110		0000000000000110	000000000000110	                 1
# 01110111		0000000000000110	000000000000110	                 1
# 01111000		0000000000000110	000000000000110	                 1
# 01111001		0000000000000110	000000000000110	                 1
# 01111010		0000000000000110	000000000000110	                 1
# 01111011		0000000000000110	000000000000110	                 1
# 01111100		0000000000000110	000000000000110	                 1
# 01111101		0000000000000110	000000000000110	                 1
# 01111110		0000000000000110	000000000000110	                 1
# 01111111		0000000000000110	000000000000110	                 1
# 10000000		0000000000000111	000000000000111	                 1
# 10000001		0000000000000111	000000000000111	                 1
# 10000010		0000000000000111	000000000000111	                 1
# 10000011		0000000000000111	000000000000111	                 1
# 10000100		0000000000000111	000000000000111	                 1
# 10000101		0000000000000111	000000000000111	                 1
# 10000110		0000000000000111	000000000000111	                 1
# 10000111		0000000000000111	000000000000111	                 1
# 10001000		0000000000000111	000000000000111	                 1
# 10001001		0000000000000111	000000000000111	                 1
# 10001010		0000000000000111	000000000000111	                 1
# 10001011		0000000000000111	000000000000111	                 1
# 10001100		0000000000000111	000000000000111	                 1
# 10001101		0000000000000111	000000000000111	                 1
# 10001110		0000000000000111	000000000000111	                 1
# 10001111		0000000000000111	000000000000111	                 1
# 10010000		0000000000000111	000000000000111	                 1
# 10010001		0000000000000111	000000000000111	                 1
# 10010010		0000000000000111	000000000000111	                 1
# 10010011		0000000000000111	000000000000111	                 1
# 10010100		0000000000000111	000000000000111	                 1
# 10010101		0000000000000111	000000000000111	                 1
# 10010110		0000000000000111	000000000000111	                 1
# 10010111		0000000000000111	000000000000111	                 1
# 10011000		0000000000000111	000000000000111	                 1
# 10011001		0000000000000111	000000000000111	                 1
# 10011010		0000000000000111	000000000000111	                 1
# 10011011		0000000000000111	000000000000111	                 1
# 10011100		0000000000000111	000000000000111	                 1
# 10011101		0000000000000111	000000000000111	                 1
# 10011110		0000000000000111	000000000000111	                 1
# 10011111		0000000000000111	000000000000111	                 1
# 10100000		0000000000000111	000000000000111	                 1
# 10100001		0000000000000111	000000000000111	                 1
# 10100010		0000000000000111	000000000000111	                 1
# 10100011		0000000000000111	000000000000111	                 1
# 10100100		0000000000000111	000000000000111	                 1
# 10100101		0000000000000111	000000000000111	                 1
# 10100110		0000000000000111	000000000000111	                 1
# 10100111		0000000000000111	000000000000111	                 1
# 10101000		0000000000000111	000000000000111	                 1
# 10101001		0000000000000111	000000000000111	                 1
# 10101010		0000000000000111	000000000000111	                 1
# 10101011		0000000000000111	000000000000111	                 1
# 10101100		0000000000000111	000000000000111	                 1
# 10101101		0000000000000111	000000000000111	                 1
# 10101110		0000000000000111	000000000000111	                 1
# 10101111		0000000000000111	000000000000111	                 1
# 10110000		0000000000000111	000000000000111	                 1
# 10110001		0000000000000111	000000000000111	                 1
# 10110010		0000000000000111	000000000000111	                 1
# 10110011		0000000000000111	000000000000111	                 1
# 10110100		0000000000000111	000000000000111	                 1
# 10110101		0000000000000111	000000000000111	                 1
# 10110110		0000000000000111	000000000000111	                 1
# 10110111		0000000000000111	000000000000111	                 1
# 10111000		0000000000000111	000000000000111	                 1
# 10111001		0000000000000111	000000000000111	                 1
# 10111010		0000000000000111	000000000000111	                 1
# 10111011		0000000000000111	000000000000111	                 1
# 10111100		0000000000000111	000000000000111	                 1
# 10111101		0000000000000111	000000000000111	                 1
# 10111110		0000000000000111	000000000000111	                 1
# 10111111		0000000000000111	000000000000111	                 1
# 11000000		0000000000000111	000000000000111	                 1
# 11000001		0000000000000111	000000000000111	                 1
# 11000010		0000000000000111	000000000000111	                 1
# 11000011		0000000000000111	000000000000111	                 1
# 11000100		0000000000000111	000000000000111	                 1
# 11000101		0000000000000111	000000000000111	                 1
# 11000110		0000000000000111	000000000000111	                 1
# 11000111		0000000000000111	000000000000111	                 1
# 11001000		0000000000000111	000000000000111	                 1
# 11001001		0000000000000111	000000000000111	                 1
# 11001010		0000000000000111	000000000000111	                 1
# 11001011		0000000000000111	000000000000111	                 1
# 11001100		0000000000000111	000000000000111	                 1
# 11001101		0000000000000111	000000000000111	                 1
# 11001110		0000000000000111	000000000000111	                 1
# 11001111		0000000000000111	000000000000111	                 1
# 11010000		0000000000000111	000000000000111	                 1
# 11010001		0000000000000111	000000000000111	                 1
# 11010010		0000000000000111	000000000000111	                 1
# 11010011		0000000000000111	000000000000111	                 1
# 11010100		0000000000000111	000000000000111	                 1
# 11010101		0000000000000111	000000000000111	                 1
# 11010110		0000000000000111	000000000000111	                 1
# 11010111		0000000000000111	000000000000111	                 1
# 11011000		0000000000000111	000000000000111	                 1
# 11011001		0000000000000111	000000000000111	                 1
# 11011010		0000000000000111	000000000000111	                 1
# 11011011		0000000000000111	000000000000111	                 1
# 11011100		0000000000000111	000000000000111	                 1
# 11011101		0000000000000111	000000000000111	                 1
# 11011110		0000000000000111	000000000000111	                 1
# 11011111		0000000000000111	000000000000111	                 1
# 11100000		0000000000000111	000000000000111	                 1
# 11100001		0000000000000111	000000000000111	                 1
# 11100010		0000000000000111	000000000000111	                 1
# 11100011		0000000000000111	000000000000111	                 1
# 11100100		0000000000000111	000000000000111	                 1
# 11100101		0000000000000111	000000000000111	                 1
# 11100110		0000000000000111	000000000000111	                 1
# 11100111		0000000000000111	000000000000111	                 1
# 11101000		0000000000000111	000000000000111	                 1
# 11101001		0000000000000111	000000000000111	                 1
# 11101010		0000000000000111	000000000000111	                 1
# 11101011		0000000000000111	000000000000111	                 1
# 11101100		0000000000000111	000000000000111	                 1
# 11101101		0000000000000111	000000000000111	                 1
# 11101110		0000000000000111	000000000000111	                 1
# 11101111		0000000000000111	000000000000111	                 1
# 11110000		0000000000000111	000000000000111	                 1
# 11110001		0000000000000111	000000000000111	                 1
# 11110010		0000000000000111	000000000000111	                 1
# 11110011		0000000000000111	000000000000111	                 1
# 11110100		0000000000000111	000000000000111	                 1
# 11110101		0000000000000111	000000000000111	                 1
# 11110110		0000000000000111	000000000000111	                 1
# 11110111		0000000000000111	000000000000111	                 1
# 11111000		0000000000000111	000000000000111	                 1
# 11111001		0000000000000111	000000000000111	                 1
# 11111010		0000000000000111	000000000000111	                 1
# 11111011		0000000000000111	000000000000111	                 1
# 11111100		0000000000000111	000000000000111	                 1
# 11111101		0000000000000111	000000000000111	                 1
# 11111110		0000000000000111	000000000000111	                 1
# 11111111		0000000000000111	000000000000111	                 1
# Passed / Total: 255 / 255
# Nota: 2.  0
# End time: 16:51:50 on Dec 28,2023, Elapsed time: 0:00:03
# Errors: 0, Warnings: 0
do run_ex4.txt
# ex4.v
# spi_rx_tb
# Model Technology ModelSim - Intel FPGA Edition vlog 10.5b Compiler 2016.10 Oct  5 2016
# Start time: 16:53:43 on Dec 28,2023
# vlog -reportprogress 300 ex4.v 
# -- Compiling module spi_rx
# -- Compiling module spi_rx_tb
# 
# Top level modules:
# 	spi_rx_tb
# End time: 16:53:43 on Dec 28,2023, Elapsed time: 0:00:00
# Errors: 0, Warnings: 0
# vsim -voptargs="+acc" spi_rx_tb 
# Start time: 16:53:43 on Dec 28,2023
# Loading work.spi_rx_tb
# Loading work.spi_rx
# Time	clk	flush	bit		actual_byte	expected_byte	Passed(1)/Failed(0)
#    0	000	0000x	00x		00000000000	000000000	                 1
#    1	001	00000	001		00000000000	000000000	                 1
#    2	000	00000	001		00000000000	000000000	                 1
#    3	001	00000	001		00000000000	000000000	                 1
#    4	000	00000	001		00000000000	000000000	                 1
#    5	001	00000	000		00000000000	000000000	                 1
#    6	000	00000	000		00000000000	000000000	                 1
#    7	001	00000	000		00000000000	000000000	                 1
#    8	000	00000	000		00000000000	000000000	                 1
#    9	001	00000	001		00000000000	000000000	                 1
#   10	000	00000	001		00000000000	000000000	                 1
#   11	001	00000	000		00000000000	000000000	                 1
#   12	000	00000	000		00000000000	000000000	                 1
#   13	001	00000	001		00000000000	000000000	                 1
#   14	000	00000	001		00000000000	000000000	                 1
#   15	001	00000	000		00001010011	001010011	                 1
#   16	000	00000	000		00001010011	001010011	                 1
#   17	001	00000	000		00001010011	001010011	                 1
#   18	000	00000	000		00001010011	001010011	                 1
#   19	001	00000	000		00001010011	001010011	                 1
#   20	000	00000	000		00001010011	001010011	                 1
#   21	001	00000	001		00001010011	001010011	                 1
#   22	000	00000	001		00001010011	001010011	                 1
#   23	001	00000	001		00001010011	001010011	                 1
#   24	000	00000	001		00001010011	001010011	                 1
#   25	001	00000	001		00001010011	001010011	                 1
#   26	000	00000	001		00001010011	001010011	                 1
#   27	001	00000	001		00001010011	001010011	                 1
#   28	000	00000	001		00001010011	001010011	                 1
#   29	001	00000	001		00001010011	001010011	                 1
#   30	000	00000	001		00001010011	001010011	                 1
#   31	001	00000	001		00011111100	011111100	                 1
#   32	000	00000	001		00011111100	011111100	                 1
#   33	001	00000	001		00011111100	011111100	                 1
#   34	000	00000	001		00011111100	011111100	                 1
#   35	001	00000	001		00011111100	011111100	                 1
#   36	000	00000	001		00011111100	011111100	                 1
#   37	001	00000	001		00011111100	011111100	                 1
#   38	000	00000	001		00011111100	011111100	                 1
#   39	001	00000	001		00011111100	011111100	                 1
#   40	000	00000	001		00011111100	011111100	                 1
#   41	001	00000	001		00011111100	011111100	                 1
#   42	000	00000	001		00011111100	011111100	                 1
#   43	001	00000	001		00011111100	011111100	                 1
#   44	000	00000	001		00011111100	011111100	                 1
#   45	001	00001	001		00011111100	011111100	                 1
#   46	000	00001	001		00011111100	011111100	                 1
#   47	001	00001	001		00011111100	011111100	                 1
#   48	000	00001	001		00011111100	011111100	                 1
#   49	001	00001	001		00011111100	011111100	                 1
#   50	000	00001	001		00011111100	011111100	                 1
#   51	001	00001	001		00011111100	011111100	                 1
#   52	000	00001	001		00011111100	011111100	                 1
#   53	001	00001	001		00011111100	011111100	                 1
#   54	000	00001	001		00011111100	011111100	                 1
#   55	001	00001	001		00011111100	011111100	                 1
#   56	000	00001	001		00011111100	011111100	                 1
#   57	001	00001	001		00011111100	011111100	                 1
#   58	000	00001	001		00011111100	011111100	                 1
#   59	001	00001	001		00011111100	011111100	                 1
#   60	000	00001	001		00011111100	011111100	                 1
#   61	001	00001	001		00011111100	011111100	                 1
#   62	000	00001	001		00011111100	011111100	                 1
#   63	001	00001	001		00011111100	011111100	                 1
#   64	000	00001	001		00011111100	011111100	                 1
#   65	001	00000	001		00011111100	011111100	                 1
#   66	000	00000	001		00011111100	011111100	                 1
#   67	001	00000	000		00011111100	011111100	                 1
#   68	000	00000	000		00011111100	011111100	                 1
#   69	001	00000	001		00011111100	011111100	                 1
#   70	000	00000	001		00011111100	011111100	                 1
#   71	001	00000	000		00011111100	011111100	                 1
#   72	000	00000	000		00011111100	011111100	                 1
#   73	001	00000	000		00011111100	011111100	                 1
#   74	000	00000	000		00011111100	011111100	                 1
#   75	001	00000	001		00011111100	011111100	                 1
#   76	000	00000	001		00011111100	011111100	                 1
#   77	001	00000	001		00011111100	011111100	                 1
#   78	000	00000	001		00011111100	011111100	                 1
#   79	001	00000	001		00011100101	011100101	                 1
#   80	000	00000	001		00011100101	011100101	                 1
# Passed / Total: 40 / 40
# Nota: 2.500
# End time: 16:53:47 on Dec 28,2023, Elapsed time: 0:00:04
# Errors: 0, Warnings: 0
do run_ex3.txt
# ex3.v
# mult_last_2_tb
# Model Technology ModelSim - Intel FPGA Edition vlog 10.5b Compiler 2016.10 Oct  5 2016
# Start time: 16:55:44 on Dec 28,2023
# vlog -reportprogress 300 ex3.v 
# -- Compiling module mult_last2
# -- Compiling module mult_last2_tb0
# -- Compiling module mult_last2_tb1
# -- Compiling module mult_last2_tb2
# -- Compiling module mult_last_2_tb
# 
# Top level modules:
# 	mult_last_2_tb
# End time: 16:55:44 on Dec 28,2023, Elapsed time: 0:00:00
# Errors: 0, Warnings: 0
# vsim -voptargs="+acc" mult_last_2_tb 
# Start time: 16:55:44 on Dec 28,2023
# Loading work.mult_last_2_tb
# Loading work.mult_last2_tb0
# Loading work.mult_last2
# Loading work.mult_last2_tb1
# Loading work.mult_last2_tb2
# TESTBENCH 0: Valori implicite ale parametrilor
# Time	clk	ld	rst_b	in		expected_out	actual_out	Passed(1)/Failed(0)
#    0	000	00	00001	 5		           0	         x	000000000000000000
#    2	001	00	00001	10		           0	         0	000000000000000001
#    4	000	00	00001	10		           0	         0	000000000000000001
#    6	001	00	00001	 5		          50	         0	000000000000000000
#    8	000	00	00001	 5		          50	         0	000000000000000000
#   10	001	00	00001	 0		          50	        50	000000000000000001
#   12	000	00	00001	 0		          50	        50	000000000000000001
#   14	001	00	00001	 5		          25	         0	000000000000000000
#   16	000	00	00001	 5		          25	         0	000000000000000000
#   18	001	00	00001	 2		          10	         0	000000000000000000
#   20	000	00	00001	 2		          10	         0	000000000000000000
#   21	000	01	00001	10		          10	         0	000000000000000000
#   22	001	00	00001	 5		          10	        10	000000000000000001
#   24	000	00	00001	10		          10	        10	000000000000000001
#   26	001	00	00001	13		          65	        10	000000000000000000
#   28	000	00	00001	13		          65	        10	000000000000000000
#   30	001	00	00001	13		         169	        65	000000000000000000
#   32	000	00	00001	13		         169	        65	000000000000000000
#   34	001	00	00001	15		         195	       169	000000000000000000
#   36	000	00	00001	15		         195	       169	000000000000000000
#   38	001	00	00001	15		         225	       195	000000000000000000
#   40	000	00	00001	15		         225	       195	000000000000000000
#   42	001	00	00001	 0		           0	       225	000000000000000000
#   44	000	00	00001	 0		           0	       225	000000000000000000
#   46	001	00	00001	10		           0	         0	000000000000000001
#   48	000	00	00001	10		           0	         0	000000000000000001
#   50	001	00	00001	 3		           0	         0	000000000000000001
#   52	000	00	00000	10		           0	         0	000000000000000001
#   54	001	00	00001	 1		           0	         0	000000000000000001
#   56	000	00	00001	 1		           0	         0	000000000000000001
#   58	001	00	00001	10		          10	         0	000000000000000000
#   60	000	00	00001	10		          10	         0	000000000000000000
#   62	001	00	00001	 0		          10	        10	000000000000000001
#   64	000	00	00001	 0		          10	        10	000000000000000001
#   66	001	00	00001	 0		          10	         0	000000000000000000
#   68	000	00	00001	 0		          10	         0	000000000000000000
# TESTBENCH 1: Modificat valoarea de ignore
# Time	clk	ld	rst_b	in		expected_out	actual_out	Passed(1)/Failed(0)
#  100	000	00	00001	 5		           0	         x	000000000000000000
#  102	001	00	00001	10		           0	         0	000000000000000001
#  104	000	00	00001	10		           0	         0	000000000000000001
#  106	001	00	00001	 5		          50	         0	000000000000000000
#  108	000	00	00001	 5		          50	         0	000000000000000000
#  110	001	00	00001	 8		          50	        50	000000000000000001
#  112	000	00	00001	 8		          50	        50	000000000000000001
#  114	001	00	00001	 5		          25	        40	000000000000000000
#  116	000	00	00001	 5		          25	        40	000000000000000000
#  118	001	00	00001	 2		          10	        40	000000000000000000
#  120	000	00	00001	 2		          10	        40	000000000000000000
#  121	000	01	00001	10		          10	        40	000000000000000000
#  122	001	00	00001	 5		          10	        10	000000000000000001
#  124	000	00	00001	10		          10	        10	000000000000000001
#  126	001	00	00001	13		          65	        10	000000000000000000
#  128	000	00	00001	13		          65	        10	000000000000000000
#  130	001	00	00001	13		         169	        65	000000000000000000
#  132	000	00	00001	13		         169	        65	000000000000000000
#  134	001	00	00001	15		         195	       169	000000000000000000
#  136	000	00	00001	15		         195	       169	000000000000000000
#  138	001	00	00001	15		         225	       195	000000000000000000
#  140	000	00	00001	15		         225	       195	000000000000000000
#  142	001	00	00001	 0		           0	       225	000000000000000000
#  144	000	00	00001	 0		           0	       225	000000000000000000
#  146	001	00	00001	10		           0	         0	000000000000000001
#  148	000	00	00001	10		           0	         0	000000000000000001
#  150	001	00	00001	 3		           0	         0	000000000000000001
#  152	000	00	00000	10		           0	         0	000000000000000001
#  154	001	00	00001	 1		           0	         0	000000000000000001
#  156	000	00	00001	 1		           0	         0	000000000000000001
#  158	001	00	00001	10		          10	         0	000000000000000000
#  160	000	00	00001	10		          10	         0	000000000000000000
#  162	001	00	00001	 8		          10	        10	000000000000000001
#  164	000	00	00001	 8		          10	        10	000000000000000001
#  166	001	00	00001	 8		          10	        80	000000000000000000
#  168	000	00	00001	 8		          10	        80	000000000000000000
# TESTBENCH 2: Modificat numarul de biti
# Time	clk	ld	rst_b	in		expected_out	actual_out	Passed(1)/Failed(0)
#  200	000	00	00001	 5		           0	         x	000000000000000000
#  202	001	00	00001	10		           0	         0	000000000000000001
#  204	000	00	00001	10		           0	         0	000000000000000001
#  206	001	00	00001	 5		          50	         0	000000000000000000
#  208	000	00	00001	 5		          50	         0	000000000000000000
#  210	001	00	00001	 0		          50	        50	000000000000000001
#  212	000	00	00001	 0		          50	        50	000000000000000001
#  214	001	00	00001	 5		          25	         0	000000000000000000
#  216	000	00	00001	 5		          25	         0	000000000000000000
#  218	001	00	00001	 2		          10	         0	000000000000000000
#  220	000	00	00001	 2		          10	         0	000000000000000000
#  221	000	01	00001	10		          10	         0	000000000000000000
#  222	001	00	00001	 5		          10	        10	000000000000000001
#  224	000	00	00001	10		          10	        10	000000000000000001
#  226	001	00	00001	13		          65	        10	000000000000000000
#  228	000	00	00001	13		          65	        10	000000000000000000
#  230	001	00	00001	13		         169	        65	000000000000000000
#  232	000	00	00001	13		         169	        65	000000000000000000
#  234	001	00	00001	63		         819	       169	000000000000000000
#  236	000	00	00001	63		         819	       169	000000000000000000
#  238	001	00	00001	63		        3969	       819	000000000000000000
#  240	000	00	00001	63		        3969	       819	000000000000000000
#  242	001	00	00001	 0		           0	      3969	000000000000000000
#  244	000	00	00001	 0		           0	      3969	000000000000000000
